{
    "Version": "2012-10-17",
    "Statement": [
        {
            "Sid": "AllowsUsersToViewIamResources",
            "Effect": "Allow",
            "Action": [
                "iam:Get*",
                "iam:List*"
            ],
            "Resource": "*"
        },
        {
            "Sid": "AllowsUsersToCreateTheirOwnVirtualMFADevice",
            "Effect": "Allow",
            "Action": [
                "iam:CreateVirtualMFADevice",
                "iam:EnableMFADevice",
                "iam:ResyncMFADevice",
                "iam:DeleteVirtualMFADevice"
            ],
            "Resource": [
                "arn:yourARNwithAcctNumber:mfa/${aws:username}",
                "arn:yourARNwithAcctNumber:user/${aws:username}"
            ]
        },
        {
            "Sid": "AllowUsersToDeactivateTheirOwnVirtualMFADevice",
            "Effect": "Allow",
            "Action": [
                "iam:DeactivateMFADevice"
            ],
            "Resource": [
                "arn:yourARNwithAcctNumber:mfa/${aws:username}",
                "arn:yourARNwithAcctNumber:user/${aws:username}"
            ],
            "Condition": {
                "Bool": {
                    "aws:MultiFactorAuthPresent": true
                }
            }
        },
        {
            "Sid": "AllowUsersToListMFADevicesandUsersForConsole",
            "Effect": "Allow",
            "Action": [
                "iam:ListMFADevices",
                "iam:ListVirtualMFADevices",
                "iam:ListUsers"
            ],
            "Resource": "*"
        },
        {
            "Sid": "DoNotAllowAnythingOtherThanAboveUnlessMFAd",
            "Effect": "Deny",
            "NotAction": "iam:*",
            "Resource": "*",
            "Condition": {
                "Null": {
                    "aws:MultiFactorAuthAge": "true"
                }
            }
        }
    ]
}